[{"page": 3, "pages": 6, "per_page": "50", "total": 297}, [{"id": "FSM", "iso2Code": "FM", "name": "Micronesia, Fed. Sts.", "region": {"id": "EAS", "iso2code": "Z4", "value": "East Asia & Pacific"}, "adminregion": {"id": "EAP", "iso2code": "4E", "value": "East Asia & Pacific (excluding high income)"}, "incomeLevel": {"id": "LMC", "iso2code": "XN", "value": "Lower middle income"}, "lendingType": {"id": "IDX", "iso2code": "XI", "value": "IDA"}, "capitalCity": "Palikir", "longitude": "158.185", "latitude": "6.91771"}, {"id": "FXS", "iso2Code": "6F", "name": "IDA countries classified as fragile situations, excluding Sub-Saharan Africa", "region": {"id": "NA", "iso2code": "NA", "value": "Aggregates"}, "adminregion": {"id": "", "iso2code": "", "value": ""}, "incomeLevel": {"id": "NA", "iso2code": "NA", "value": "Aggregates"}, "lendingType": {"id": "", "iso2code": "", "value": "Aggregates"}, "capitalCity": "", "longitude": "", "latitude": ""}, {"id": "GAB", "iso2Code": "GA", "name": "Gabon", "region": {"id": "SSF", "iso2code": "ZG", "value": "Sub-Saharan Africa "}, "adminregion": {"id": "SSA", "iso2code": "ZF", "value": "Sub-Saharan Africa (excluding high income)"}, "incomeLevel": {"id": "UMC", "iso2code": "XT", "value": "Upper middle income"}, "lendingType": {"id": "IBD", "iso2code": "XF", "value": "IBRD"}, "capitalCity": "Libreville", "longitude": "9.45162", "latitude": "0.38832"}, {"id": "GBR", "iso2Code": "GB", "name": "United Kingdom", "region": {"id": "ECS", "iso2code": "Z7", "value": "Europe & Central Asia"}, "adminregion": {"id": "", "iso2code": "", "value": ""}, "incomeLevel": {"id": "HIC", "iso2code": "XD", "value": "High income"}, "lendingType": {"id": "LNX", "iso2code": "XX", "value": "Not classified"}, "capitalCity": "London", "longitude": "-0.126236", "latitude": "51.5002"}, {"id": "GEO", "iso2Code": "GE", "name": "Georgia", "region": {"id": "ECS", "iso2code": "Z7", "value": "Europe & Central Asia"}, "adminregion": {"id": "ECA", "iso2code": "7E", "value": "Europe & Central Asia (excluding high income)"}, "incomeLevel": {"id": "UMC", "iso2code": "XT", "value": "Upper middle income"}, "lendingType": {"id": "IBD", "iso2code": "XF", "value": "IBRD"}, "capitalCity": "Tbilisi", "longitude": "44.793", "latitude": "41.71"}, {"id": "GHA", "iso2Code": "GH", "name": "Ghana", "region": {"id": "SSF", "iso2code": "ZG", "value": "Sub-Saharan Africa "}, "adminregion": {"id": "SSA", "iso2code": "ZF", "value": "Sub-Saharan Africa (excluding high income)"}, "incomeLevel": {"id": "LMC", "iso2code": "XN", "value": "Lower middle income"}, "lendingType": {"id": "IDX", "iso2code": "XI", "value": "IDA"}, "capitalCity": "Accra", "longitude": "-0.20795", "latitude": "5.57045"}, {"id": "GIB", "iso2Code": "GI", "name": "Gibraltar", "region": {"id": "ECS", "iso2code": "Z7", "value": "Europe & Central Asia"}, "adminregion": {"id": "", "iso2code": "", "value": ""}, "incomeLevel": {"id": "HIC", "iso2code": "XD", "value": "High income"}, "lendingType": {"id": "LNX", "iso2code": "XX", "value": "Not classified"}, "capitalCity": "", "longitude": "", "latitude": ""}, {"id": "GIN", "iso2Code": "GN", "name": "Guinea", "region": {"id": "SSF", "iso2code": "ZG", "value": "Sub-Saharan Africa "}, "adminregion": {"id": "SSA", "iso2code": "ZF", "value": "Sub-Saharan Africa (excluding high income)"}, "incomeLevel": {"id": "LMC", "iso2code": "XN", "value": "Lower middle income"}, "lendingType": {"id": "IDX", "iso2code": "XI", "value": "IDA"}, "capitalCity": "Conakry", "longitude": "-13.7", "latitude": "9.51667"}, {"id": "GMB", "iso2Code": "GM", "name": "Gambia, The", "region": {"id": "SSF", "iso2code": "ZG", "value": "Sub-Saharan Africa "}, "adminregion": {"id": "SSA", "iso2code": "ZF", "value": "Sub-Saharan Africa (excluding high income)"}, "incomeLevel": {"id": "LIC", "iso2code": "XM", "value": "Low income"}, "lendingType": {"id": "IDX", "iso2code": "XI", "value": "IDA"}, "capitalCity": "Banjul", "longitude": "-16.5885", "latitude": "13.4495"}, {"id": "GNB", "iso2Code": "GW", "name": "Guinea-Bissau", "region": {"id": "SSF", "iso2code": "ZG", "value": "Sub-Saharan Africa "}, "adminregion": {"id": "SSA", "iso2code": "ZF", "value": "Sub-Saharan Africa (excluding high income)"}, "incomeLevel": {"id": "LIC", "iso2code": "XM", "value": "Low income"}, "lendingType": {"id": "IDX", "iso2code": "XI", "value": "IDA"}, "capitalCity": "Bissau", "longitude": "-15.1804", "latitude": "11.8037"}, {"id": "GNQ", "iso2Code": "GQ", "name": "Equatorial Guinea", "region": {"id": "SSF", "iso2code": "ZG", "value": "Sub-Saharan Africa "}, "adminregion": {"id": "SSA", "iso2code": "ZF", "value": "Sub-Saharan Africa (excluding high income)"}, "incomeLevel": {"id": "UMC", "iso2code": "XT", "value": "Upper middle income"}, "lendingType": {"id": "IBD", "iso2code": "XF", "value": "IBRD"}, "capitalCity": "Malabo", "longitude": "8.7741", "latitude": "3.7523"}, {"id": "GRC", "iso2Code": "GR", "name": "Greece", "region": {"id": "ECS", "iso2code": "Z7", "value": "Europe & Central Asia"}, "adminregion": {"id": "", "iso2code": "", "value": ""}, "incomeLevel": {"id": "HIC", "iso2code": "XD", "value": "High income"}, "lendingType": {"id": "LNX", "iso2code": "XX", "value": "Not classified"}, "capitalCity": "Athens", "longitude": "23.7166", "latitude": "37.9792"}, {"id": "GRD", "iso2Code": "GD", "name": "Grenada", "region": {"id": "LCN", "iso2code": "ZJ", "value": "Latin America & Caribbean "}, "adminregion": {"id": "LAC", "iso2code": "XJ", "value": "Latin America & Caribbean (excluding high income)"}, "incomeLevel": {"id": "UMC", "iso2code": "XT", "value": "Upper middle income"}, "lendingType": {"id": "IDB", "iso2code": "XH", "value": "Blend"}, "capitalCity": "Saint George's", "longitude": "-61.7449", "latitude": "12.0653"}, {"id": "GRL", "iso2Code": "GL", "name": "Greenland", "region": {"id": "ECS", "iso2code": "Z7", "value": "Europe & Central Asia"}, "adminregion": {"id": "", "iso2code": "", "value": ""}, "incomeLevel": {"id": "HIC", "iso2code": "XD", "value": "High income"}, "lendingType": {"id": "LNX", "iso2code": "XX", "value": "Not classified"}, "capitalCity": "Nuuk", "longitude": "-51.7214", "latitude": "64.1836"}, {"id": "GTM", "iso2Code": "GT", "name": "Guatemala", "region": {"id": "LCN", "iso2code": "ZJ", "value": "Latin America & Caribbean "}, "adminregion": {"id": "LAC", "iso2code": "XJ", "value": "Latin America & Caribbean (excluding high income)"}, "incomeLevel": {"id": "UMC", "iso2code": "XT", "value": "Upper middle income"}, "lendingType": {"id": "IBD", "iso2code": "XF", "value": "IBRD"}, "capitalCity": "Guatemala City", "longitude": "-90.5328", "latitude": "14.6248"}, {"id": "GUM", "iso2Code": "GU", "name": "Guam", "region": {"id": "EAS", "iso2code": "Z4", "value": "East Asia & Pacific"}, "adminregion": {"id": "", "iso2code": "", "value": ""}, "incomeLevel": {"id": "HIC", "iso2code": "XD", "value": "High income"}, "lendingType": {"id": "LNX", "iso2code": "XX", "value": "Not classified"}, "capitalCity": "Agana", "longitude": "144.794", "latitude": "13.4443"}, {"id": "GUY", "iso2Code": "GY", "name": "Guyana", "region": {"id": "LCN", "iso2code": "ZJ", "value": "Latin America & Caribbean "}, "adminregion": {"id": "", "iso2code": "", "value": ""}, "incomeLevel": {"id": "HIC", "iso2code": "XD", "value": "High income"}, "lendingType": {"id": "IDX", "iso2code": "XI", "value": "IDA"}, "capitalCity": "Georgetown", "longitude": "-58.1548", "latitude": "6.80461"}, {"id": "HIC", "iso2Code": "XD", "name": "High income", "region": {"id": "NA", "iso2code": "NA", "value": "Aggregates"}, "adminregion": {"id": "", "iso2code": "", "value": ""}, "incomeLevel": {"id": "NA", "iso2code": "NA", "value": "Aggregates"}, "lendingType": {"id": "", "iso2code": "", "value": "Aggregates"}, "capitalCity": "", "longitude": "", "latitude": ""}, {"id": "HKG", "iso2Code": "HK", "name": "Hong Kong SAR, China", "region": {"id": "EAS", "iso2code": "Z4", "value": "East Asia & Pacific"}, "adminregion": {"id": "", "iso2code": "", "value": ""}, "incomeLevel": {"id": "HIC", "iso2code": "XD", "value": "High income"}, "lendingType": {"id": "LNX", "iso2code": "XX", "value": "Not classified"}, "capitalCity": "", "longitude": "114.109", "latitude": "22.3964"}, {"id": "HND", "iso2Code": "HN", "name": "Honduras", "region": {"id": "LCN", "iso2code": "ZJ", "value": "Latin America & Caribbean "}, "adminregion": {"id": "LAC", "iso2code": "XJ", "value": "Latin America & Caribbean (excluding high income)"}, "incomeLevel": {"id": "LMC", "iso2code": "XN", "value": "Lower middle income"}, "lendingType": {"id": "IDX", "iso2code": "XI", "value": "IDA"}, "capitalCity": "Tegucigalpa", "longitude": "-87.4667", "latitude": "15.1333"}, {"id": "HPC", "iso2Code": "XE", "name": "Heavily indebted poor countries (HIPC)", "region": {"id": "NA", "iso2code": "NA", "value": "Aggregates"}, "adminregion": {"id": "", "iso2code": "", "value": ""}, "incomeLevel": {"id": "NA", "iso2code": "NA", "value": "Aggregates"}, "lendingType": {"id": "", "iso2code": "", "value": "Aggregates"}, "capitalCity": "", "longitude": "", "latitude": ""}, {"id": "HRV", "iso2Code": "HR", "name": "Croatia", "region": {"id": "ECS", "iso2code": "Z7", "value": "Europe & Central Asia"}, "adminregion": {"id": "", "iso2code": "", "value": ""}, "incomeLevel": {"id": "HIC", "iso2code": "XD", "value": "High income"}, "lendingType": {"id": "IBD", "iso2code": "XF", "value": "IBRD"}, "capitalCity": "Zagreb", "longitude": "15.9614", "latitude": "45.8069"}, {"id": "HTI", "iso2Code": "HT", "name": "Haiti", "region": {"id": "LCN", "iso2code": "ZJ", "value": "Latin America & Caribbean "}, "adminregion": {"id": "LAC", "iso2code": "XJ", "value": "Latin America & Caribbean (excluding high income)"}, "incomeLevel": {"id": "LMC", "iso2code": "XN", "value": "Lower middle income"}, "lendingType": {"id": "IDX", "iso2code": "XI", "value": "IDA"}, "capitalCity": "Port-au-Prince", "longitude": "-72.3288", "latitude": "18.5392"}, {"id": "HUN", "iso2Code": "HU", "name": "Hungary", "region": {"id": "ECS", "iso2code": "Z7", "value": "Europe & Central Asia"}, "adminregion": {"id": "", "iso2code": "", "value": ""}, "incomeLevel": {"id": "HIC", "iso2code": "XD", "value": "High income"}, "lendingType": {"id": "LNX", "iso2code": "XX", "value": "Not classified"}, "capitalCity": "Budapest", "longitude": "19.0408", "latitude": "47.4984"}, {"id": "IBB", "iso2Code": "ZB", "name": "IBRD, including blend", "region": {"id": "NA", "iso2code": "NA", "value": "Aggregates"}, "adminregion": {"id": "", "iso2code": "", "value": ""}, "incomeLevel": {"id": "NA", "iso2code": "NA", "value": "Aggregates"}, "lendingType": {"id": "", "iso2code": "", "value": "Aggregates"}, "capitalCity": "", "longitude": "", "latitude": ""}, {"id": "IBD", "iso2Code": "XF", "name": "IBRD only", "region": {"id": "NA", "iso2code": "NA", "value": "Aggregates"}, "adminregion": {"id": "", "iso2code": "", "value": ""}, "incomeLevel": {"id": "NA", "iso2code": "NA", "value": "Aggregates"}, "lendingType": {"id": "", "iso2code": "", "value": "Aggregates"}, "capitalCity": "", "longitude": "", "latitude": ""}, {"id": "IBT", "iso2Code": "ZT", "name": "IDA & IBRD total", "region": {"id": "NA", "iso2code": "NA", "value": "Aggregates"}, "adminregion": {"id": "", "iso2code": "", "value": ""}, "incomeLevel": {"id": "NA", "iso2code": "NA", "value": "Aggregates"}, "lendingType": {"id": "", "iso2code": "", "value": "Aggregates"}, "capitalCity": "", "longitude": "", "latitude": ""}, {"id": "IDA", "iso2Code": "XG", "name": "IDA total", "region": {"id": "NA", "iso2code": "NA", "value": "Aggregates"}, "adminregion": {"id": "", "iso2code": "", "value": ""}, "incomeLevel": {"id": "NA", "iso2code": "NA", "value": "Aggregates"}, "lendingType": {"id": "", "iso2code": "", "value": "Aggregates"}, "capitalCity": "", "longitude": "", "latitude": ""}, {"id": "IDB", "iso2Code": "XH", "name": "IDA blend", "region": {"id": "NA", "iso2code": "NA", "value": "Aggregates"}, "adminregion": {"id": "", "iso2code": "", "value": ""}, "incomeLevel": {"id": "NA", "iso2code": "NA", "value": "Aggregates"}, "lendingType": {"id": "", "iso2code": "", "value": "Aggregates"}, "capitalCity": "", "longitude": "", "latitude": ""}, {"id": "IDN", "iso2Code": "ID", "name": "Indonesia", "region": {"id": "EAS", "iso2code": "Z4", "value": "East Asia & Pacific"}, "adminregion": {"id": "EAP", "iso2code": "4E", "value": "East Asia & Pacific (excluding high income)"}, "incomeLevel": {"id": "UMC", "iso2code": "XT", "value": "Upper middle income"}, "lendingType": {"id": "IBD", "iso2code": "XF", "value": "IBRD"}, "capitalCity": "Jakarta", "longitude": "106.83", "latitude": "-6.19752"}, {"id": "IDX", "iso2Code": "XI", "name": "IDA only", "region": {"id": "NA", "iso2code": "NA", "value": "Aggregates"}, "adminregion": {"id": "", "iso2code": "", "value": ""}, "incomeLevel": {"id": "NA", "iso2code": "NA", "value": "Aggregates"}, "lendingType": {"id": "", "iso2code": "", "value": "Aggregates"}, "capitalCity": "", "longitude": "", "latitude": ""}, {"id": "IMN", "iso2Code": "IM", "name": "Isle of Man", "region": {"id": "ECS", "iso2code": "Z7", "value": "Europe & Central Asia"}, "adminregion": {"id": "", "iso2code": "", "value": ""}, "incomeLevel": {"id": "HIC", "iso2code": "XD", "value": "High income"}, "lendingType": {"id": "LNX", "iso2code": "XX", "value": "Not classified"}, "capitalCity": "Douglas", "longitude": "-4.47928", "latitude": "54.1509"}, {"id": "IND", "iso2Code": "IN", "name": "India", "region": {"id": "SAS", "iso2code": "8S", "value": "South Asia"}, "adminregion": {"id": "SAS", "iso2code": "8S", "value": "South Asia"}, "incomeLevel": {"id": "LMC", "iso2code": "XN", "value": "Lower middle income"}, "lendingType": {"id": "IBD", "iso2code": "XF", "value": "IBRD"}, "capitalCity": "New Delhi", "longitude": "77.225", "latitude": "28.6353"}, {"id": "INX", "iso2Code": "XY", "name": "Not classified", "region": {"id": "NA", "iso2code": "NA", "value": "Aggregates"}, "adminregion": {"id": "", "iso2code": "", "value": ""}, "incomeLevel": {"id": "NA", "iso2code": "NA", "value": "Aggregates"}, "lendingType": {"id": "", "iso2code": "", "value": "Aggregates"}, "capitalCity": "", "longitude": "", "latitude": ""}, {"id": "IRL", "iso2Code": "IE", "name": "Ireland", "region": {"id": "ECS", "iso2code": "Z7", "value": "Europe & Central Asia"}, "adminregion": {"id": "", "iso2code": "", "value": ""}, "incomeLevel": {"id": "HIC", "iso2code": "XD", "value": "High income"}, "lendingType": {"id": "LNX", "iso2code": "XX", "value": "Not classified"}, "capitalCity": "Dublin", "longitude": "-6.26749", "latitude": "53.3441"}, {"id": "IRN", "iso2Code": "IR", "name": "Iran, Islamic Rep.", "region": {"id": "MEA", "iso2code": "ZQ", "value": "Middle East & North Africa"}, "adminregion": {"id": "MNA", "iso2code": "XQ", "value": "Middle East & North Africa (excluding high income)"}, "incomeLevel": {"id": "LMC", "iso2code": "XN", "value": "Lower middle income"}, "lendingType": {"id": "IBD", "iso2code": "XF", "value": "IBRD"}, "capitalCity": "Tehran", "longitude": "51.4447", "latitude": "35.6878"}, {"id": "IRQ", "iso2Code": "IQ", "name": "Iraq", "region": {"id": "MEA", "iso2code": "ZQ", "value": "Middle East & North Africa"}, "adminregion": {"id": "MNA", "iso2code": "XQ", "value": "Middle East & North Africa (excluding high income)"}, "incomeLevel": {"id": "UMC", "iso2code": "XT", "value": "Upper middle income"}, "lendingType": {"id": "IBD", "iso2code": "XF", "value": "IBRD"}, "capitalCity": "Baghdad", "longitude": "44.394", "latitude": "33.3302"}, {"id": "ISL", "iso2Code": "IS", "name": "Iceland", "region": {"id": "ECS", "iso2code": "Z7", "value": "Europe & Central Asia"}, "adminregion": {"id": "", "iso2code": "", "value": ""}, "incomeLevel": {"id": "HIC", "iso2code": "XD", "value": "High income"}, "lendingType": {"id": "LNX", "iso2code": "XX", "value": "Not classified"}, "capitalCity": "Reykjavik", "longitude": "-21.8952", "latitude": "64.1353"}, {"id": "ISR", "iso2Code": "IL", "name": "Israel", "region": {"id": "MEA", "iso2code": "ZQ", "value": "Middle East & North Africa"}, "adminregion": {"id": "", "iso2code": "", "value": ""}, "incomeLevel": {"id": "HIC", "iso2code": "XD", "value": "High income"}, "lendingType": {"id": "LNX", "iso2code": "XX", "value": "Not classified"}, "capitalCity": "", "longitude": "35.2035", "latitude": "31.7717"}, {"id": "ITA", "iso2Code": "IT", "name": "Italy", "region": {"id": "ECS", "iso2code": "Z7", "value": "Europe & Central Asia"}, "adminregion": {"id": "", "iso2code": "", "value": ""}, "incomeLevel": {"id": "HIC", "iso2code": "XD", "value": "High income"}, "lendingType": {"id": "LNX", "iso2code": "XX", "value": "Not classified"}, "capitalCity": "Rome", "longitude": "12.4823", "latitude": "41.8955"}, {"id": "JAM", "iso2Code": "JM", "name": "Jamaica", "region": {"id": "LCN", "iso2code": "ZJ", "value": "Latin America & Caribbean "}, "adminregion": {"id": "LAC", "iso2code": "XJ", "value": "Latin America & Caribbean (excluding high income)"}, "incomeLevel": {"id": "UMC", "iso2code": "XT", "value": "Upper middle income"}, "lendingType": {"id": "IBD", "iso2code": "XF", "value": "IBRD"}, "capitalCity": "Kingston", "longitude": "-76.792", "latitude": "17.9927"}, {"id": "JOR", "iso2Code": "JO", "name": "Jordan", "region": {"id": "MEA", "iso2code": "ZQ", "value": "Middle East & North Africa"}, "adminregion": {"id": "MNA", "iso2code": "XQ", "value": "Middle East & North Africa (excluding high income)"}, "incomeLevel": {"id": "LMC", "iso2code": "XN", "value": "Lower middle income"}, "lendingType": {"id": "IBD", "iso2code": "XF", "value": "IBRD"}, "capitalCity": "Amman", "longitude": "35.9263", "latitude": "31.9497"}, {"id": "JPN", "iso2Code": "JP", "name": "Japan", "region": {"id": "EAS", "iso2code": "Z4", "value": "East Asia & Pacific"}, "adminregion": {"id": "", "iso2code": "", "value": ""}, "incomeLevel": {"id": "HIC", "iso2code": "XD", "value": "High income"}, "lendingType": {"id": "LNX", "iso2code": "XX", "value": "Not classified"}, "capitalCity": "Tokyo", "longitude": "139.77", "latitude": "35.67"}, {"id": "KAZ", "iso2Code": "KZ", "name": "Kazakhstan", "region": {"id": "ECS", "iso2code": "Z7", "value": "Europe & Central Asia"}, "adminregion": {"id": "ECA", "iso2code": "7E", "value": "Europe & Central Asia (excluding high income)"}, "incomeLevel": {"id": "UMC", "iso2code": "XT", "value": "Upper middle income"}, "lendingType": {"id": "IBD", "iso2code": "XF", "value": "IBRD"}, "capitalCity": "Astana", "longitude": "71.4382", "latitude": "51.1879"}, {"id": "KEN", "iso2Code": "KE", "name": "Kenya", "region": {"id": "SSF", "iso2code": "ZG", "value": "Sub-Saharan Africa "}, "adminregion": {"id": "SSA", "iso2code": "ZF", "value": "Sub-Saharan Africa (excluding high income)"}, "incomeLevel": {"id": "LMC", "iso2code": "XN", "value": "Lower middle income"}, "lendingType": {"id": "IDB", "iso2code": "XH", "value": "Blend"}, "capitalCity": "Nairobi", "longitude": "36.8126", "latitude": "-1.27975"}, {"id": "KGZ", "iso2Code": "KG", "name": "Kyrgyz Republic", "region": {"id": "ECS", "iso2code": "Z7", "value": "Europe & Central Asia"}, "adminregion": {"id": "ECA", "iso2code": "7E", "value": "Europe & Central Asia (excluding high income)"}, "incomeLevel": {"id": "LMC", "iso2code": "XN", "value": "Lower middle income"}, "lendingType": {"id": "IDX", "iso2code": "XI", "value": "IDA"}, "capitalCity": "Bishkek", "longitude": "74.6057", "latitude": "42.8851"}, {"id": "KHM", "iso2Code": "KH", "name": "Cambodia", "region": {"id": "EAS", "iso2code": "Z4", "value": "East Asia & Pacific"}, "adminregion": {"id": "EAP", "iso2code": "4E", "value": "East Asia & Pacific (excluding high income)"}, "incomeLevel": {"id": "LMC", "iso2code": "XN", "value": "Lower middle income"}, "lendingType": {"id": "IDX", "iso2code": "XI", "value": "IDA"}, "capitalCity": "Phnom Penh", "longitude": "104.874", "latitude": "11.5556"}, {"id": "KIR", "iso2Code": "KI", "name": "Kiribati", "region": {"id": "EAS", "iso2code": "Z4", "value": "East Asia & Pacific"}, "adminregion": {"id": "EAP", "iso2code": "4E", "value": "East Asia & Pacific (excluding high income)"}, "incomeLevel": {"id": "LMC", "iso2code": "XN", "value": "Lower middle income"}, "lendingType": {"id": "IDX", "iso2code": "XI", "value": "IDA"}, "capitalCity": "Tarawa", "longitude": "172.979", "latitude": "1.32905"}, {"id": "KNA", "iso2Code": "KN", "name": "St. Kitts and Nevis", "region": {"id": "LCN", "iso2code": "ZJ", "value": "Latin America & Caribbean "}, "adminregion": {"id": "", "iso2code": "", "value": ""}, "incomeLevel": {"id": "HIC", "iso2code": "XD", "value": "High income"}, "lendingType": {"id": "IBD", "iso2code": "XF", "value": "IBRD"}, "capitalCity": "Basseterre", "longitude": "-62.7309", "latitude": "17.3"}, {"id": "KOR", "iso2Code": "KR", "name": "Korea, Rep.", "region": {"id": "EAS", "iso2code": "Z4", "value": "East Asia & Pacific"}, "adminregion": {"id": "", "iso2code": "", "value": ""}, "incomeLevel": {"id": "HIC", "iso2code": "XD", "value": "High income"}, "lendingType": {"id": "LNX", "iso2code": "XX", "value": "Not classified"}, "capitalCity": "Seoul", "longitude": "126.957", "latitude": "37.5323"}]]