[{"page": 4, "pages": 6, "per_page": "50", "total": 297}, [{"id": "KWT", "iso2Code": "KW", "name": "Kuwait", "region": {"id": "MEA", "iso2code": "ZQ", "value": "Middle East & North Africa"}, "adminregion": {"id": "", "iso2code": "", "value": ""}, "incomeLevel": {"id": "HIC", "iso2code": "XD", "value": "High income"}, "lendingType": {"id": "LNX", "iso2code": "XX", "value": "Not classified"}, "capitalCity": "Kuwait City", "longitude": "47.9824", "latitude": "29.3721"}, {"id": "LAC", "iso2Code": "XJ", "name": "Latin America & Caribbean (excluding high income)", "region": {"id": "NA", "iso2code": "NA", "value": "Aggregates"}, "adminregion": {"id": "", "iso2code": "", "value": ""}, "incomeLevel": {"id": "NA", "iso2code": "NA", "value": "Aggregates"}, "lendingType": {"id": "", "iso2code": "", "value": "Aggregates"}, "capitalCity": "", "longitude": "", "latitude": ""}, {"id": "LAO", "iso2Code": "LA", "name": "Lao PDR", "region": {"id": "EAS", "iso2code": "Z4", "value": "East Asia & Pacific"}, "adminregion": {"id": "EAP", "iso2code": "4E", "value": "East Asia & Pacific (excluding high income)"}, "incomeLevel": {"id": "LMC", "iso2code": "XN", "value": "Lower middle income"}, "lendingType": {"id": "IDX", "iso2code": "XI", "value": "IDA"}, "capitalCity": "Vientiane", "longitude": "102.177", "latitude": "18.5826"}, {"id": "LBN", "iso2Code": "LB", "name": "Lebanon", "region": {"id": "MEA", "iso2code": "ZQ", "value": "Middle East & North Africa"}, "adminregion": {"id": "MNA", "iso2code": "XQ", "value": "Middle East & North Africa (excluding high income)"}, "incomeLevel": {"id": "LMC", "iso2code": "XN", "value": "Lower middle income"}, "lendingType": {"id": "IBD", "iso2code": "XF", "value": "IBRD"}, "capitalCity": "Beirut", "longitude": "35.5134", "latitude": "33.8872"}, {"id": "LBR", "iso2Code": "LR", "name": "Liberia", "region": {"id": "SSF", "iso2code": "ZG", "value": "Sub-Saharan Africa "}, "adminregion": {"id": "SSA", "iso2code": "ZF", "value": "Sub-Saharan Africa (excluding high income)"}, "incomeLevel": {"id": "LIC", "iso2code": "XM", "value": "Low income"}, "lendingType": {"id": "IDX", "iso2code": "XI", "value": "IDA"}, "capitalCity": "Monrovia", "longitude": "-10.7957", "latitude": "6.30039"}, {"id": "LBY", "iso2Code": "LY", "name": "Libya", "region": {"id": "MEA", "iso2code": "ZQ", "value": "Middle East & North Africa"}, "adminregion": {"id": "MNA", "iso2code": "XQ", "value": "Middle East & North Africa (excluding high income)"}, "incomeLevel": {"id": "UMC", "iso2code": "XT", "value": "Upper middle income"}, "lendingType": {"id": "IBD", "iso2code": "XF", "value": "IBRD"}, "capitalCity": "Tripoli", "longitude": "13.1072", "latitude": "32.8578"}, {"id": "LCA", "iso2Code": "LC", "name": "St. Lucia", "region": {"id": "LCN", "iso2code": "ZJ", "value": "Latin America & Caribbean "}, "adminregion": {"id": "LAC", "iso2code": "XJ", "value": "Latin America & Caribbean (excluding high income)"}, "incomeLevel": {"id": "UMC", "iso2code": "XT", "value": "Upper middle income"}, "lendingType": {"id": "IDB", "iso2code": "XH", "value": "Blend"}, "capitalCity": "Castries", "longitude": "-60.9832", "latitude": "14"}, {"id": "LCN", "iso2Code": "ZJ", "name": "Latin America & Caribbean ", "region": {"id": "NA", "iso2code": "NA", "value": "Aggregates"}, "adminregion": {"id": "", "iso2code": "", "value": ""}, "incomeLevel": {"id": "NA", "iso2code": "NA", "value": "Aggregates"}, "lendingType": {"id": "", "iso2code": "", "value": "Aggregates"}, "capitalCity": "", "longitude": "", "latitude": ""}, {"id": "LDC", "iso2Code": "XL", "name": "Least developed countries: UN classification", "region": {"id": "NA", "iso2code": "NA", "value": "Aggregates"}, "adminregion": {"id": "", "iso2code": "", "value": ""}, "incomeLevel": {"id": "NA", "iso2code": "NA", "value": "Aggregates"}, "lendingType": {"id": "", "iso2code": "", "value": "Aggregates"}, "capitalCity": "", "longitude": "", "latitude": ""}, {"id": "LIC", "iso2Code": "XM", "name": "Low income", "region": {"id": "NA", "iso2code": "NA", "value": "Aggregates"}, "adminregion": {"id": "", "iso2code": "", "value": ""}, "incomeLevel": {"id": "NA", "iso2code": "NA", "value": "Aggregates"}, "lendingType": {"id": "", "iso2code": "", "value": "Aggregates"}, "capitalCity": "", "longitude": "", "latitude": ""}, {"id": "LIE", "iso2Code": "LI", "name": "Liechtenstein", "region": {"id": "ECS", "iso2code": "Z7", "value": "Europe & Central Asia"}, "adminregion": {"id": "", "iso2code": "", "value": ""}, "incomeLevel": {"id": "HIC", "iso2code": "XD", "value": "High income"}, "lendingType": {"id": "LNX", "iso2code": "XX", "value": "Not classified"}, "capitalCity": "Vaduz", "longitude": "9.52148", "latitude": "47.1411"}, {"id": "LKA", "iso2Code": "LK", "name": "Sri Lanka", "region": {"id": "SAS", "iso2code": "8S", "value": "South Asia"}, "adminregion": {"id": "SAS", "iso2code": "8S", "value": "South Asia"}, "incomeLevel": {"id": "LMC", "iso2code": "XN", "value": "Lower middle income"}, "lendingType": {"id": "IDX", "iso2code": "XI", "value": "IDA"}, "capitalCity": "Colombo", "longitude": "79.8528", "latitude": "6.92148"}, {"id": "LMC", "iso2Code": "XN", "name": "Lower middle income", "region": {"id": "NA", "iso2code": "NA", "value": "Aggregates"}, "adminregion": {"id": "", "iso2code": "", "value": ""}, "incomeLevel": {"id": "NA", "iso2code": "NA", "value": "Aggregates"}, "lendingType": {"id": "", "iso2code": "", "value": "Aggregates"}, "capitalCity": "", "longitude": "", "latitude": ""}, {"id": "LMY", "iso2Code": "XO", "name": "Low & middle income", "region": {"id": "NA", "iso2code": "NA", "value": "Aggregates"}, "adminregion": {"id": "", "iso2code": "", "value": ""}, "incomeLevel": {"id": "NA", "iso2code": "NA", "value": "Aggregates"}, "lendingType": {"id": "", "iso2code": "", "value": "Aggregates"}, "capitalCity": "", "longitude": "", "latitude": ""}, {"id": "LSO", "iso2Code": "LS", "name": "Lesotho", "region": {"id": "SSF", "iso2code": "ZG", "value": "Sub-Saharan Africa "}, "adminregion": {"id": "SSA", "iso2code": "ZF", "value": "Sub-Saharan Africa (excluding high income)"}, "incomeLevel": {"id": "LMC", "iso2code": "XN", "value": "Lower middle income"}, "lendingType": {"id": "IDX", "iso2code": "XI", "value": "IDA"}, "capitalCity": "Maseru", "longitude": "27.7167", "latitude": "-29.5208"}, {"id": "LTE", "iso2Code": "V3", "name": "Late-demographic dividend", "region": {"id": "NA", "iso2code": "NA", "value": "Aggregates"}, "adminregion": {"id": "", "iso2code": "", "value": ""}, "incomeLevel": {"id": "NA", "iso2code": "NA", "value": "Aggregates"}, "lendingType": {"id": "", "iso2code": "", "value": "Aggregates"}, "capitalCity": "", "longitude": "", "latitude": ""}, {"id": "LTU", "iso2Code": "LT", "name": "Lithuania", "region": {"id": "ECS", "iso2code": "Z7", "value": "Europe & Central Asia"}, "adminregion": {"id": "", "iso2code": "", "value": ""}, "incomeLevel": {"id": "HIC", "iso2code": "XD", "value": "High income"}, "lendingType": {"id": "LNX", "iso2code": "XX", "value": "Not classified"}, "capitalCity": "Vilnius", "longitude": "25.2799", "latitude": "54.6896"}, {"id": "LUX", "iso2Code": "LU", "name": "Luxembourg", "region": {"id": "ECS", "iso2code": "Z7", "value": "Europe & Central Asia"}, "adminregion": {"id": "", "iso2code": "", "value": ""}, "incomeLevel": {"id": "HIC", "iso2code": "XD", "value": "High income"}, "lendingType": {"id": "LNX", "iso2code": "XX", "value": "Not classified"}, "capitalCity": "Luxembourg", "longitude": "6.1296", "latitude": "49.61"}, {"id": "LVA", "iso2Code": "LV", "name": "Latvia", "region": {"id": "ECS", "iso2code": "Z7", "value": "Europe & Central Asia"}, "adminregion": {"id": "", "iso2code": "", "value": ""}, "incomeLevel": {"id": "HIC", "iso2code": "XD", "value": "High income"}, "lendingType": {"id": "LNX", "iso2code": "XX", "value": "Not classified"}, "capitalCity": "Riga", "longitude": "24.1048", "latitude": "56.9465"}, {"id": "MAC", "iso2Code": "MO", "name": "Macao SAR, China", "region": {"id": "EAS", "iso2code": "Z4", "value": "East Asia & Pacific"}, "adminregion": {"id": "", "iso2code": "", "value": ""}, "incomeLevel": {"id": "HIC", "iso2code": "XD", "value": "High income"}, "lendingType": {"id": "LNX", "iso2code": "XX", "value": "Not classified"}, "capitalCity": "", "longitude": "113.55", "latitude": "22.1667"}, {"id": "MAF", "iso2Code": "MF", "name": "St. Martin (French part)", "region": {"id": "LCN", "iso2code": "ZJ", "value": "Latin America & Caribbean "}, "adminregion": {"id": "", "iso2code": "", "value": ""}, "incomeLevel": {"id": "HIC", "iso2code": "XD", "value": "High income"}, "lendingType": {"id": "LNX", "iso2code": "XX", "value": "Not classified"}, "capitalCity": "Marigot", "longitude": "", "latitude": ""}, {"id": "MAR", "iso2Code": "MA", "name": "Morocco", "region": {"id": "MEA", "iso2code": "ZQ", "value": "Middle East & North Africa"}, "adminregion": {"id": "MNA", "iso2code": "XQ", "value": "Middle East & North Africa (excluding high income)"}, "incomeLevel": {"id": "LMC", "iso2code": "XN", "value": "Lower middle income"}, "lendingType": {"id": "IBD", "iso2code": "XF", "value": "IBRD"}, "capitalCity": "Rabat", "longitude": "-6.8704", "latitude": "33.9905"}, {"id": "MCO", "iso2Code": "MC", "name": "Monaco", "region": {"id": "ECS", "iso2code": "Z7", "value": "Europe & Central Asia"}, "adminregion": {"id": "", "iso2code": "", "value": ""}, "incomeLevel": {"id": "HIC", "iso2code": "XD", "value": "High income"}, "lendingType": {"id": "LNX", "iso2code": "XX", "value": "Not classified"}, "capitalCity": "Monaco", "longitude": "7.41891", "latitude": "43.7325"}, {"id": "MDA", "iso2Code": "MD", "name": "Moldova", "region": {"id": "ECS", "iso2code": "Z7", "value": "Europe & Central Asia"}, "adminregion": {"id": "ECA", "iso2code": "7E", "value": "Europe & Central Asia (excluding high income)"}, "incomeLevel": {"id": "UMC", "iso2code": "XT", "value": "Upper middle income"}, "lendingType": {"id": "IBD", "iso2code": "XF", "value": "IBRD"}, "capitalCity": "Chisinau", "longitude": "28.8497", "latitude": "47.0167"}, {"id": "MDE", "iso2Code": "M1", "name": "Middle East (developing only)", "region": {"id": "NA", "iso2code": "NA", "value": "Aggregates"}, "adminregion": {"id": "", "iso2code": "", "value": ""}, "incomeLevel": {"id": "NA", "iso2code": "NA", "value": "Aggregates"}, "lendingType": {"id": "", "iso2code": "", "value": "Aggregates"}, "capitalCity": "", "longitude": "", "latitude": ""}, {"id": "MDG", "iso2Code": "MG", "name": "Madagascar", "region": {"id": "SSF", "iso2code": "ZG", "value": "Sub-Saharan Africa "}, "adminregion": {"id": "SSA", "iso2code": "ZF", "value": "Sub-Saharan Africa (excluding high income)"}, "incomeLevel": {"id": "LIC", "iso2code": "XM", "value": "Low income"}, "lendingType": {"id": "IDX", "iso2code": "XI", "value": "IDA"}, "capitalCity": "Antananarivo", "longitude": "45.7167", "latitude": "-20.4667"}, {"id": "MDV", "iso2Code": "MV", "name": "Maldives", "region": {"id": "SAS", "iso2code": "8S", "value": "South Asia"}, "adminregion": {"id": "SAS", "iso2code": "8S", "value": "South Asia"}, "incomeLevel": {"id": "UMC", "iso2code": "XT", "value": "Upper middle income"}, "lendingType": {"id": "IDX", "iso2code": "XI", "value": "IDA"}, "capitalCity": "Male", "longitude": "73.5109", "latitude": "4.1742"}, {"id": "MEA", "iso2Code": "ZQ", "name": "Middle East & North Africa", "region": {"id": "NA", "iso2code": "NA", "value": "Aggregates"}, "adminregion": {"id": "", "iso2code": "", "value": ""}, "incomeLevel": {"id": "NA", "iso2code": "NA", "value": "Aggregates"}, "lendingType": {"id": "", "iso2code": "", "value": "Aggregates"}, "capitalCity": "", "longitude": "", "latitude": ""}, {"id": "MEX", "iso2Code": "MX", "name": "Mexico", "region": {"id": "LCN", "iso2code": "ZJ", "value": "Latin America & Caribbean "}, "adminregion": {"id": "LAC", "iso2code": "XJ", "value": "Latin America & Caribbean (excluding high income)"}, "incomeLevel": {"id": "UMC", "iso2code": "XT", "value": "Upper middle income"}, "lendingType": {"id": "IBD", "iso2code": "XF", "value": "IBRD"}, "capitalCity": "Mexico City", "longitude": "-99.1276", "latitude": "19.427"}, {"id": "MHL", "iso2Code": "MH", "name": "Marshall Islands", "region": {"id": "EAS", "iso2code": "Z4", "value": "East Asia & Pacific"}, "adminregion": {"id": "EAP", "iso2code": "4E", "value": "East Asia & Pacific (excluding high income)"}, "incomeLevel": {"id": "UMC", "iso2code": "XT", "value": "Upper middle income"}, "lendingType": {"id": "IDX", "iso2code": "XI", "value": "IDA"}, "capitalCity": "Majuro", "longitude": "171.135", "latitude": "7.11046"}, {"id": "MIC", "iso2Code": "XP", "name": "Middle income", "region": {"id": "NA", "iso2code": "NA", "value": "Aggregates"}, "adminregion": {"id": "", "iso2code": "", "value": ""}, "incomeLevel": {"id": "NA", "iso2code": "NA", "value": "Aggregates"}, "lendingType": {"id": "", "iso2code": "", "value": "Aggregates"}, "capitalCity": "", "longitude": "", "latitude": ""}, {"id": "MKD", "iso2Code": "MK", "name": "North Macedonia", "region": {"id": "ECS", "iso2code": "Z7", "value": "Europe & Central Asia"}, "adminregion": {"id": "ECA", "iso2code": "7E", "value": "Europe & Central Asia (excluding high income)"}, "incomeLevel": {"id": "UMC", "iso2code": "XT", "value": "Upper middle income"}, "lendingType": {"id": "IBD", "iso2code": "XF", "value": "IBRD"}, "capitalCity": "Skopje", "longitude": "21.4361", "latitude": "42.0024"}, {"id": "MLI", "iso2Code": "ML", "name": "Mali", "region": {"id": "SSF", "iso2code": "ZG", "value": "Sub-Saharan Africa "}, "adminregion": {"id": "SSA", "iso2code": "ZF", "value": "Sub-Saharan Africa (excluding high income)"}, "incomeLevel": {"id": "LIC", "iso2code": "XM", "value": "Low income"}, "lendingType": {"id": "IDX", "iso2code": "XI", "value": "IDA"}, "capitalCity": "Bamako", "longitude": "-7.50034", "latitude": "13.5667"}, {"id": "MLT", "iso2Code": "MT", "name": "Malta", "region": {"id": "MEA", "iso2code": "ZQ", "value": "Middle East & North Africa"}, "adminregion": {"id": "", "iso2code": "", "value": ""}, "incomeLevel": {"id": "HIC", "iso2code": "XD", "value": "High income"}, "lendingType": {"id": "LNX", "iso2code": "XX", "value": "Not classified"}, "capitalCity": "Valletta", "longitude": "14.5189", "latitude": "35.9042"}, {"id": "MMR", "iso2Code": "MM", "name": "Myanmar", "region": {"id": "EAS", "iso2code": "Z4", "value": "East Asia & Pacific"}, "adminregion": {"id": "EAP", "iso2code": "4E", "value": "East Asia & Pacific (excluding high income)"}, "incomeLevel": {"id": "LMC", "iso2code": "XN", "value": "Lower middle income"}, "lendingType": {"id": "IDX", "iso2code": "XI", "value": "IDA"}, "capitalCity": "Naypyidaw", "longitude": "95.9562", "latitude": "21.914"}, {"id": "MNA", "iso2Code": "XQ", "name": "Middle East & North Africa (excluding high income)", "region": {"id": "NA", "iso2code": "NA", "value": "Aggregates"}, "adminregion": {"id": "", "iso2code": "", "value": ""}, "incomeLevel": {"id": "NA", "iso2code": "NA", "value": "Aggregates"}, "lendingType": {"id": "", "iso2code": "", "value": "Aggregates"}, "capitalCity": "", "longitude": "", "latitude": ""}, {"id": "MNE", "iso2Code": "ME", "name": "Montenegro", "region": {"id": "ECS", "iso2code": "Z7", "value": "Europe & Central Asia"}, "adminregion": {"id": "ECA", "iso2code": "7E", "value": "Europe & Central Asia (excluding high income)"}, "incomeLevel": {"id": "UMC", "iso2code": "XT", "value": "Upper middle income"}, "lendingType": {"id": "IBD", "iso2code": "XF", "value": "IBRD"}, "capitalCity": "Podgorica", "longitude": "19.2595", "latitude": "42.4602"}, {"id": "MNG", "iso2Code": "MN", "name": "Mongolia", "region": {"id": "EAS", "iso2code": "Z4", "value": "East Asia & Pacific"}, "adminregion": {"id": "EAP", "iso2code": "4E", "value": "East Asia & Pacific (excluding high income)"}, "incomeLevel": {"id": "LMC", "iso2code": "XN", "value": "Lower middle income"}, "lendingType": {"id": "IBD", "iso2code": "XF", "value": "IBRD"}, "capitalCity": "Ulaanbaatar", "longitude": "106.937", "latitude": "47.9129"}, {"id": "MNP", "iso2Code": "MP", "name": "Northern Mariana Islands", "region": {"id": "EAS", "iso2code": "Z4", "value": "East Asia & Pacific"}, "adminregion": {"id": "", "iso2code": "", "value": ""}, "incomeLevel": {"id": "HIC", "iso2code": "XD", "value": "High income"}, "lendingType": {"id": "LNX", "iso2code": "XX", "value": "Not classified"}, "capitalCity": "Saipan", "longitude": "145.765", "latitude": "15.1935"}, {"id": "MOZ", "iso2Code": "MZ", "name": "Mozambique", "region": {"id": "SSF", "iso2code": "ZG", "value": "Sub-Saharan Africa "}, "adminregion": {"id": "SSA", "iso2code": "ZF", "value": "Sub-Saharan Africa (excluding high income)"}, "incomeLevel": {"id": "LIC", "iso2code": "XM", "value": "Low income"}, "lendingType": {"id": "IDX", "iso2code": "XI", "value": "IDA"}, "capitalCity": "Maputo", "longitude": "32.5713", "latitude": "-25.9664"}, {"id": "MRT", "iso2Code": "MR", "name": "Mauritania", "region": {"id": "SSF", "iso2code": "ZG", "value": "Sub-Saharan Africa "}, "adminregion": {"id": "SSA", "iso2code": "ZF", "value": "Sub-Saharan Africa (excluding high income)"}, "incomeLevel": {"id": "LMC", "iso2code": "XN", "value": "Lower middle income"}, "lendingType": {"id": "IDX", "iso2code": "XI", "value": "IDA"}, "capitalCity": "Nouakchott", "longitude": "-15.9824", "latitude": "18.2367"}, {"id": "MUS", "iso2Code": "MU", "name": "Mauritius", "region": {"id": "SSF", "iso2code": "ZG", "value": "Sub-Saharan Africa "}, "adminregion": {"id": "SSA", "iso2code": "ZF", "value": "Sub-Saharan Africa (excluding high income)"}, "incomeLevel": {"id": "UMC", "iso2code": "XT", "value": "Upper middle income"}, "lendingType": {"id": "IBD", "iso2code": "XF", "value": "IBRD"}, "capitalCity": "Port Louis", "longitude": "57.4977", "latitude": "-20.1605"}, {"id": "MWI", "iso2Code": "MW", "name": "Malawi", "region": {"id": "SSF", "iso2code": "ZG", "value": "Sub-Saharan Africa "}, "adminregion": {"id": "SSA", "iso2code": "ZF", "value": "Sub-Saharan Africa (excluding high income)"}, "incomeLevel": {"id": "LIC", "iso2code": "XM", "value": "Low income"}, "lendingType": {"id": "IDX", "iso2code": "XI", "value": "IDA"}, "capitalCity": "Lilongwe", "longitude": "33.7703", "latitude": "-13.9899"}, {"id": "MYS", "iso2Code": "MY", "name": "Malaysia", "region": {"id": "EAS", "iso2code": "Z4", "value": "East Asia & Pacific"}, "adminregion": {"id": "EAP", "iso2code": "4E", "value": "East Asia & Pacific (excluding high income)"}, "incomeLevel": {"id": "UMC", "iso2code": "XT", "value": "Upper middle income"}, "lendingType": {"id": "IBD", "iso2code": "XF", "value": "IBRD"}, "capitalCity": "Kuala Lumpur", "longitude": "101.684", "latitude": "3.12433"}, {"id": "NAC", "iso2Code": "XU", "name": "North America", "region": {"id": "NA", "iso2code": "NA", "value": "Aggregates"}, "adminregion": {"id": "", "iso2code": "", "value": ""}, "incomeLevel": {"id": "NA", "iso2code": "NA", "value": "Aggregates"}, "lendingType": {"id": "", "iso2code": "", "value": "Aggregates"}, "capitalCity": "", "longitude": "", "latitude": ""}, {"id": "NAF", "iso2Code": "M2", "name": "North Africa", "region": {"id": "NA", "iso2code": "NA", "value": "Aggregates"}, "adminregion": {"id": "", "iso2code": "", "value": ""}, "incomeLevel": {"id": "NA", "iso2code": "NA", "value": "Aggregates"}, "lendingType": {"id": "", "iso2code": "", "value": "Aggregates"}, "capitalCity": "", "longitude": "", "latitude": ""}, {"id": "NAM", "iso2Code": "NA", "name": "Namibia", "region": {"id": "SSF", "iso2code": "ZG", "value": "Sub-Saharan Africa "}, "adminregion": {"id": "SSA", "iso2code": "ZF", "value": "Sub-Saharan Africa (excluding high income)"}, "incomeLevel": {"id": "UMC", "iso2code": "XT", "value": "Upper middle income"}, "lendingType": {"id": "IBD", "iso2code": "XF", "value": "IBRD"}, "capitalCity": "Windhoek", "longitude": "17.0931", "latitude": "-22.5648"}, {"id": "NCL", "iso2Code": "NC", "name": "New Caledonia", "region": {"id": "EAS", "iso2code": "Z4", "value": "East Asia & Pacific"}, "adminregion": {"id": "", "iso2code": "", "value": ""}, "incomeLevel": {"id": "HIC", "iso2code": "XD", "value": "High income"}, "lendingType": {"id": "LNX", "iso2code": "XX", "value": "Not classified"}, "capitalCity": "Noum'ea", "longitude": "166.464", "latitude": "-22.2677"}, {"id": "NER", "iso2Code": "NE", "name": "Niger", "region": {"id": "SSF", "iso2code": "ZG", "value": "Sub-Saharan Africa "}, "adminregion": {"id": "SSA", "iso2code": "ZF", "value": "Sub-Saharan Africa (excluding high income)"}, "incomeLevel": {"id": "LIC", "iso2code": "XM", "value": "Low income"}, "lendingType": {"id": "IDX", "iso2code": "XI", "value": "IDA"}, "capitalCity": "Niamey", "longitude": "2.1073", "latitude": "13.514"}, {"id": "NGA", "iso2Code": "NG", "name": "Nigeria", "region": {"id": "SSF", "iso2code": "ZG", "value": "Sub-Saharan Africa "}, "adminregion": {"id": "SSA", "iso2code": "ZF", "value": "Sub-Saharan Africa (excluding high income)"}, "incomeLevel": {"id": "LMC", "iso2code": "XN", "value": "Lower middle income"}, "lendingType": {"id": "IDB", "iso2code": "XH", "value": "Blend"}, "capitalCity": "Abuja", "longitude": "7.48906", "latitude": "9.05804"}]]